{
	"variables": [],
	"info": {
		"name": "coding_baires_api",
		"_postman_id": "ff94e174-9a02-bdd6-5316-255890412fe9",
		"description": "",
		"schema": "https://schema.getpostman.com/json/collection/v2.0.0/collection.json"
	},
	"item": [
		{
			"name": "api-token-auth",
			"request": {
				"url": "http://192.168.0.10:8000/api-token-auth/",
				"method": "POST",
				"header": [
					{
						"key": "Content-Type",
						"value": "application/x-www-form-urlencoded",
						"description": ""
					}
				],
				"body": {
					"mode": "urlencoded",
					"urlencoded": [
						{
							"key": "username",
							"value": "je2",
							"description": "",
							"type": "text"
						},
						{
							"key": "password",
							"value": "123456je2",
							"description": "",
							"type": "text"
						}
					]
				},
				"description": ""
			},
			"response": []
		},
		{
			"name": "GET companies",
			"request": {
				"url": "http://192.168.0.10:8000/companies/",
				"method": "GET",
				"header": [
					{
						"key": "Authorization",
						"value": "Token 05e05966eccc6f99fcdcfd2c595eae8124075125",
						"description": ""
					}
				],
				"body": {},
				"description": ""
			},
			"response": []
		},
		{
			"name": "POST reviews",
			"request": {
				"url": "http://192.168.0.10:8000/reviews/",
				"method": "POST",
				"header": [
					{
						"key": "Authorization",
						"value": "Token bb818aa2399d169fe75715b46389db3d2d13e247",
						"description": ""
					}
				],
				"body": {
					"mode": "formdata",
					"formdata": [
						{
							"key": "title",
							"value": "test 1 user 2",
							"description": "",
							"type": "text"
						},
						{
							"key": "summary",
							"value": "test summary 1 user 2",
							"description": "",
							"type": "text"
						},
						{
							"key": "rating",
							"value": "5",
							"description": "",
							"type": "text"
						},
						{
							"key": "company",
							"value": "1",
							"description": "",
							"type": "text"
						}
					]
				},
				"description": ""
			},
			"response": []
		},
		{
			"name": "GET reviews",
			"request": {
				"url": "http://192.168.0.10:8000/reviews/",
				"method": "GET",
				"header": [
					{
						"key": "Authorization",
						"value": "Token bb818aa2399d169fe75715b46389db3d2d13e247",
						"description": ""
					}
				],
				"body": {},
				"description": ""
			},
			"response": []
		},
		{
			"name": "GET users",
			"request": {
				"url": "http://192.168.0.10:8000/users/",
				"method": "GET",
				"header": [
					{
						"key": "Authorization",
						"value": "Token bb818aa2399d169fe75715b46389db3d2d13e247",
						"description": ""
					}
				],
				"body": {},
				"description": ""
			},
			"response": []
		}
	]
}